<svg width="20" height="20" viewBox="0 0 20 20" fill="none" xmlns="http://www.w3.org/2000/svg">
<path fill-rule="evenodd" clip-rule="evenodd" d="M12.7434 1.91083C13.0689 1.58539 13.5965 1.58539 13.9219 1.91083L18.0886 6.07749C18.414 6.40293 18.414 6.93057 18.0886 7.256L7.25527 18.0893C7.09899 18.2456 6.88703 18.3334 6.66602 18.3334H2.49935C2.03911 18.3334 1.66602 17.9603 1.66602 17.5001V13.3334C1.66602 13.1124 1.75381 12.9004 1.91009 12.7442L12.7434 1.91083ZM3.33268 13.6786V16.6668H6.32084L16.3208 6.66675L13.3327 3.67859L3.33268 13.6786Z" fill="#2BAEE0"/>
</svg>
