<svg width="106" height="24" viewBox="0 0 106 24" fill="none" xmlns="http://www.w3.org/2000/svg">
<path d="M32.728 15.7143C32.679 15.7143 32.633 15.6959 32.5901 15.6591C32.5533 15.6224 32.535 15.5764 32.535 15.5212L32.5533 15.4385L34.769 9.50874C34.8119 9.35552 34.9191 9.27891 35.0907 9.27891H36.0928C36.2522 9.27891 36.3594 9.35552 36.4146 9.50874L38.6302 15.4385C38.6363 15.4569 38.6394 15.4845 38.6394 15.5212C38.6394 15.5764 38.621 15.6224 38.5842 15.6591C38.5474 15.6959 38.5045 15.7143 38.4555 15.7143H37.6557C37.576 15.7143 37.5147 15.6959 37.4718 15.6591C37.4289 15.6224 37.4013 15.5825 37.3891 15.5396L36.957 14.418H34.2265L33.7945 15.5396C33.7454 15.6561 33.6566 15.7143 33.5278 15.7143H32.728ZM36.6352 13.3608L35.5872 10.52L34.5483 13.3608H36.6352ZM43.6929 15.8062C42.8471 15.8062 42.1913 15.5886 41.7255 15.1535C41.2658 14.7183 41.0207 14.1054 40.99 13.3148C40.9839 13.1493 40.9808 12.8797 40.9808 12.5058C40.9808 12.1258 40.9839 11.85 40.99 11.6784C41.0207 10.8939 41.2689 10.2841 41.7347 9.8489C42.2066 9.40761 42.8593 9.18697 43.6929 9.18697C44.2383 9.18697 44.7133 9.28197 45.1179 9.47197C45.5224 9.65583 45.8349 9.91019 46.0556 10.235C46.2762 10.5537 46.3927 10.9153 46.4049 11.3198V11.3382C46.4049 11.3873 46.3835 11.4302 46.3406 11.4669C46.3038 11.4976 46.2609 11.5129 46.2119 11.5129H45.3385C45.2649 11.5129 45.2098 11.4976 45.173 11.4669C45.1362 11.4363 45.1056 11.3781 45.0811 11.2923C44.983 10.9061 44.8206 10.6365 44.5938 10.4832C44.3671 10.3239 44.0637 10.2442 43.6837 10.2442C42.8011 10.2442 42.3414 10.7376 42.3047 11.7244C42.2985 11.8898 42.2955 12.1442 42.2955 12.4874C42.2955 12.8306 42.2985 13.0911 42.3047 13.2688C42.3414 14.2556 42.8011 14.749 43.6837 14.749C44.0637 14.749 44.3671 14.6693 44.5938 14.51C44.8267 14.3506 44.9891 14.0809 45.0811 13.7009C45.0995 13.6151 45.127 13.5569 45.1638 13.5263C45.2067 13.4956 45.2649 13.4803 45.3385 13.4803H46.2119C46.267 13.4803 46.313 13.4987 46.3498 13.5355C46.3927 13.5722 46.4111 13.6182 46.4049 13.6734C46.3927 14.0779 46.2762 14.4425 46.0556 14.7674C45.8349 15.0861 45.5224 15.3404 45.1179 15.5304C44.7133 15.7143 44.2383 15.8062 43.6929 15.8062ZM51.8161 15.8062C50.9703 15.8062 50.3145 15.5886 49.8487 15.1535C49.389 14.7183 49.1439 14.1054 49.1132 13.3148C49.1071 13.1493 49.1041 12.8797 49.1041 12.5058C49.1041 12.1258 49.1071 11.85 49.1132 11.6784C49.1439 10.8939 49.3921 10.2841 49.8579 9.8489C50.3298 9.40761 50.9826 9.18697 51.8161 9.18697C52.3616 9.18697 52.8366 9.28197 53.2411 9.47197C53.6456 9.65583 53.9582 9.91019 54.1788 10.235C54.3995 10.5537 54.5159 10.9153 54.5282 11.3198V11.3382C54.5282 11.3873 54.5067 11.4302 54.4638 11.4669C54.427 11.4976 54.3841 11.5129 54.3351 11.5129H53.4617C53.3882 11.5129 53.333 11.4976 53.2962 11.4669C53.2595 11.4363 53.2288 11.3781 53.2043 11.2923C53.1062 10.9061 52.9438 10.6365 52.7171 10.4832C52.4903 10.3239 52.1869 10.2442 51.8069 10.2442C50.9243 10.2442 50.4647 10.7376 50.4279 11.7244C50.4218 11.8898 50.4187 12.1442 50.4187 12.4874C50.4187 12.8306 50.4218 13.0911 50.4279 13.2688C50.4647 14.2556 50.9243 14.749 51.8069 14.749C52.1869 14.749 52.4903 14.6693 52.7171 14.51C52.95 14.3506 53.1124 14.0809 53.2043 13.7009C53.2227 13.6151 53.2503 13.5569 53.2871 13.5263C53.33 13.4956 53.3882 13.4803 53.4617 13.4803H54.3351C54.3903 13.4803 54.4362 13.4987 54.473 13.5355C54.5159 13.5722 54.5343 13.6182 54.5282 13.6734C54.5159 14.0779 54.3995 14.4425 54.1788 14.7674C53.9582 15.0861 53.6456 15.3404 53.2411 15.5304C52.8366 15.7143 52.3616 15.8062 51.8161 15.8062ZM57.6778 15.7143C57.6165 15.7143 57.5644 15.6928 57.5215 15.6499C57.4786 15.607 57.4571 15.5549 57.4571 15.4936V9.50874C57.4571 9.44132 57.4755 9.38616 57.5123 9.34326C57.5552 9.30036 57.6103 9.27891 57.6778 9.27891H61.7229C61.7903 9.27891 61.8454 9.30036 61.8883 9.34326C61.9312 9.38616 61.9527 9.44132 61.9527 9.50874V10.1155C61.9527 10.1829 61.9312 10.2381 61.8883 10.281C61.8454 10.3178 61.7903 10.3361 61.7229 10.3361H58.6982V11.9634H61.5206C61.588 11.9634 61.6432 11.9848 61.6861 12.0277C61.729 12.0645 61.7504 12.1166 61.7504 12.184V12.754C61.7504 12.8214 61.729 12.8766 61.6861 12.9195C61.6432 12.9563 61.588 12.9747 61.5206 12.9747H58.6982V14.657H61.7964C61.8638 14.657 61.919 14.6785 61.9619 14.7214C62.0048 14.7643 62.0262 14.8195 62.0262 14.8869V15.4936C62.0262 15.5611 62.0048 15.6162 61.9619 15.6591C61.919 15.6959 61.8638 15.7143 61.7964 15.7143H57.6778ZM65.2354 15.7143C65.1741 15.7143 65.122 15.6928 65.0791 15.6499C65.0362 15.607 65.0147 15.5549 65.0147 15.4936V9.49955C65.0147 9.43213 65.0362 9.38003 65.0791 9.34326C65.122 9.30036 65.1741 9.27891 65.2354 9.27891H66.0904C66.1578 9.27891 66.2099 9.30036 66.2467 9.34326C66.2896 9.38003 66.311 9.43213 66.311 9.49955V14.6203H69.2253C69.2927 14.6203 69.3479 14.6417 69.3908 14.6846C69.4337 14.7275 69.4552 14.7827 69.4552 14.8501V15.4936C69.4552 15.5611 69.4337 15.6162 69.3908 15.6591C69.3479 15.6959 69.2927 15.7143 69.2253 15.7143H65.2354ZM72.407 15.7143C72.3457 15.7143 72.2936 15.6928 72.2507 15.6499C72.2078 15.607 72.1863 15.5549 72.1863 15.4936V9.50874C72.1863 9.44132 72.2047 9.38616 72.2415 9.34326C72.2844 9.30036 72.3395 9.27891 72.407 9.27891H76.4521C76.5195 9.27891 76.5746 9.30036 76.6175 9.34326C76.6604 9.38616 76.6819 9.44132 76.6819 9.50874V10.1155C76.6819 10.1829 76.6604 10.2381 76.6175 10.281C76.5746 10.3178 76.5195 10.3361 76.4521 10.3361H73.4274V11.9634H76.2498C76.3172 11.9634 76.3724 11.9848 76.4153 12.0277C76.4582 12.0645 76.4796 12.1166 76.4796 12.184V12.754C76.4796 12.8214 76.4582 12.8766 76.4153 12.9195C76.3724 12.9563 76.3172 12.9747 76.2498 12.9747H73.4274V14.657H76.5256C76.593 14.657 76.6482 14.6785 76.6911 14.7214C76.734 14.7643 76.7554 14.8195 76.7554 14.8869V15.4936C76.7554 15.5611 76.734 15.6162 76.6911 15.6591C76.6482 15.6959 76.593 15.7143 76.5256 15.7143H72.407ZM79.9646 15.7143C79.9033 15.7143 79.8512 15.6928 79.8083 15.6499C79.7654 15.607 79.7439 15.5549 79.7439 15.4936V9.50874C79.7439 9.44132 79.7623 9.38616 79.7991 9.34326C79.842 9.30036 79.8972 9.27891 79.9646 9.27891H82.3457C83.0934 9.27891 83.6787 9.45358 84.1016 9.80293C84.5306 10.1523 84.7451 10.6487 84.7451 11.2923C84.7451 11.7397 84.6348 12.1166 84.4142 12.423C84.1997 12.7234 83.8994 12.9409 83.5132 13.0758L84.8555 15.4201C84.8739 15.4569 84.883 15.4906 84.883 15.5212C84.883 15.5764 84.8616 15.6224 84.8187 15.6591C84.7819 15.6959 84.739 15.7143 84.69 15.7143H83.8534C83.7553 15.7143 83.6787 15.6928 83.6236 15.6499C83.5745 15.607 83.5286 15.5457 83.4857 15.4661L82.2997 13.2872H81.0218V15.4936C81.0218 15.5549 81.0004 15.607 80.9575 15.6499C80.9207 15.6928 80.8686 15.7143 80.8012 15.7143H79.9646ZM82.3181 12.2484C82.6858 12.2484 82.9616 12.1656 83.1455 12.0002C83.3355 11.8347 83.4305 11.5956 83.4305 11.2831C83.4305 10.9705 83.3355 10.7284 83.1455 10.5568C82.9616 10.3852 82.6858 10.2994 82.3181 10.2994H81.0218V12.2484H82.3181ZM87.989 15.7143C87.9278 15.7143 87.8757 15.6928 87.8328 15.6499C87.7899 15.607 87.7684 15.5549 87.7684 15.4936V9.49955C87.7684 9.43213 87.7899 9.38003 87.8328 9.34326C87.8757 9.30036 87.9278 9.27891 87.989 9.27891H88.8532C88.9206 9.27891 88.9727 9.30036 89.0095 9.34326C89.0524 9.38003 89.0739 9.43213 89.0739 9.49955V15.4936C89.0739 15.5549 89.0524 15.607 89.0095 15.6499C88.9727 15.6928 88.9206 15.7143 88.8532 15.7143H87.989ZM94.5883 15.8062C94.0429 15.8062 93.574 15.7235 93.1817 15.558C92.7895 15.3925 92.4922 15.1749 92.29 14.9053C92.0877 14.6356 91.9805 14.3445 91.9682 14.0319C91.9682 13.9767 91.9866 13.9308 92.0234 13.894C92.0601 13.8572 92.1061 13.8388 92.1613 13.8388H92.9795C93.053 13.8388 93.1082 13.8542 93.145 13.8848C93.1879 13.9093 93.2277 13.9522 93.2645 14.0135C93.3258 14.2219 93.4667 14.3966 93.6874 14.5375C93.908 14.6785 94.2083 14.749 94.5883 14.749C95.0235 14.749 95.3514 14.6785 95.572 14.5375C95.7927 14.3904 95.903 14.1882 95.903 13.9308C95.903 13.7592 95.8448 13.6182 95.7283 13.5079C95.618 13.3975 95.4495 13.3026 95.2227 13.2229C95.002 13.1432 94.6711 13.0451 94.2298 12.9287C93.5066 12.7571 92.9764 12.5303 92.6393 12.2484C92.3084 11.9603 92.1429 11.5527 92.1429 11.0257C92.1429 10.6702 92.2379 10.3545 92.4279 10.0787C92.624 9.80293 92.9029 9.58535 93.2645 9.426C93.6322 9.26665 94.0582 9.18697 94.5424 9.18697C95.0449 9.18697 95.4801 9.27584 95.8478 9.45358C96.2156 9.63132 96.4944 9.85503 96.6844 10.1247C96.8806 10.3882 96.9847 10.6518 96.997 10.9153C96.997 10.9705 96.9786 11.0165 96.9418 11.0532C96.9051 11.09 96.8591 11.1084 96.8039 11.1084H95.949C95.8203 11.1084 95.7314 11.0502 95.6823 10.9337C95.6456 10.7376 95.523 10.5752 95.3146 10.4465C95.1062 10.3116 94.8488 10.2442 94.5424 10.2442C94.1991 10.2442 93.9295 10.3086 93.7333 10.4373C93.5372 10.566 93.4392 10.7529 93.4392 10.9981C93.4392 11.1697 93.4882 11.3106 93.5863 11.421C93.6843 11.5313 93.8375 11.6294 94.0459 11.7152C94.2604 11.801 94.5669 11.896 94.9653 12.0002C95.5046 12.1227 95.9336 12.2606 96.2523 12.4139C96.5772 12.5671 96.8162 12.7601 96.9694 12.993C97.1226 13.2259 97.1993 13.5232 97.1993 13.8848C97.1993 14.2771 97.0889 14.6203 96.8683 14.9145C96.6538 15.2025 96.3473 15.4232 95.949 15.5764C95.5567 15.7296 95.1032 15.8062 94.5883 15.8062ZM101.656 15.7143C101.595 15.7143 101.543 15.6928 101.5 15.6499C101.457 15.607 101.435 15.5549 101.435 15.4936V10.4097H99.7347C99.6734 10.4097 99.6213 10.3882 99.5784 10.3453C99.5355 10.3024 99.5141 10.2503 99.5141 10.1891V9.50874C99.5141 9.44132 99.5324 9.38616 99.5692 9.34326C99.6121 9.30036 99.6673 9.27891 99.7347 9.27891H104.423C104.491 9.27891 104.546 9.30036 104.589 9.34326C104.632 9.38616 104.653 9.44132 104.653 9.50874V10.1891C104.653 10.2503 104.632 10.3024 104.589 10.3453C104.546 10.3882 104.491 10.4097 104.423 10.4097H102.732V15.4936C102.732 15.5549 102.71 15.607 102.667 15.6499C102.624 15.6928 102.569 15.7143 102.502 15.7143H101.656Z" fill="#122434"/>
<g clip-path="url(#clip0_3449_28995)">
<path d="M12.8512 11.9905L20.7621 4.18342C20.9543 3.9937 20.9543 3.69014 20.7621 3.5099C20.5698 3.32018 20.2622 3.32018 20.0796 3.5099L11.9861 11.4878C11.9573 11.5162 11.9381 11.5447 11.9093 11.5826C11.8708 11.6016 11.842 11.6206 11.8131 11.6585C11.6209 11.8482 11.6209 12.1518 11.8131 12.332L20.07 20.4807C20.1661 20.5755 20.2911 20.6229 20.416 20.6229C20.541 20.6229 20.666 20.5755 20.7621 20.4807C20.9543 20.2909 20.9543 19.9874 20.7621 19.8071L12.8512 11.9905Z" fill="#E92D30"/>
<path d="M12.1603 7.44664C11.8912 7.44664 11.6797 7.22846 11.6797 6.97233V0.474308C11.6797 0.208696 11.9008 0 12.1603 0C12.4198 0 12.6409 0.218182 12.6409 0.474308V6.97233C12.6505 7.22846 12.4294 7.44664 12.1603 7.44664Z" fill="#FFDA00"/>
<path d="M12.1603 24C11.8912 24 11.6797 23.7818 11.6797 23.5257V17.0277C11.6797 16.7621 11.9008 16.5534 12.1603 16.5534C12.4294 16.5534 12.6409 16.7715 12.6409 17.0277V23.5257C12.6505 23.7818 12.4294 24 12.1603 24Z" fill="#F6921E"/>
<path d="M24.3291 12.0854C24.3291 12.0759 24.3291 12.0569 24.3291 12.0474C24.3291 12.0284 24.3387 12.0095 24.3387 11.9905C24.3387 11.9715 24.3387 11.9526 24.3291 11.9336C24.3291 11.9241 24.3291 11.9051 24.3291 11.8956C24.3098 11.8103 24.2714 11.7249 24.1945 11.649L20.9264 8.4237C20.7341 8.23398 20.4265 8.23398 20.2343 8.4237C20.042 8.61343 20.042 8.91699 20.2343 9.10671L22.6854 11.5257H17.2833C17.0142 11.5257 16.8027 11.7439 16.8027 12C16.8027 12.2656 17.0238 12.4743 17.2833 12.4743H22.6758L20.2247 14.8933C20.0324 15.083 20.0324 15.3866 20.2247 15.5763C20.3208 15.6711 20.4458 15.7186 20.5707 15.7186C20.6957 15.7186 20.8206 15.6711 20.9167 15.5763L24.1849 12.351C24.2618 12.2656 24.3098 12.1897 24.3291 12.0854C24.3291 12.0949 24.3291 12.0949 24.3291 12.0854Z" fill="#122434"/>
<path d="M4.24859 3.5099C4.05634 3.32018 3.74875 3.32018 3.56612 3.5099C3.37388 3.69963 3.37388 4.00318 3.56612 4.18342L10.9963 11.5162H0.48061C0.211468 11.5162 0 11.7344 0 11.9905C0 12.2561 0.22108 12.4648 0.48061 12.4648H10.9963L3.56612 19.7976C3.37388 19.9874 3.37388 20.2909 3.56612 20.4712C3.66224 20.566 3.7872 20.6135 3.91216 20.6135C4.03712 20.6135 4.16208 20.566 4.2582 20.4712L12.8611 11.981L4.24859 3.5099Z" fill="#122434"/>
</g>
<defs>
<clipPath id="clip0_3449_28995">
<rect width="24.3381" height="24" fill="white"/>
</clipPath>
</defs>
</svg>
